[
  "Your favorite childhood vacation.",
  "Turn one of the last texts you sent into a story.",
  "Two friends have a disagreement.",
  "Write about the last thing/person that made you smile.",
  "Write a letter to your 14-year old self.",
  "Write about your first job.",
  "Do you like to be alone or with company?",
  "Describe how you think your grandparents met.",
  "Go to Twitter or Facebook and write about the first post you see.",
  "You wake up today with the superpower of your choosing.",
  "It’s June 13th, the snow won’t stop falling.",
  "Write about someone you admire."
]
